[api-updater (non-obsolete-error-filter)] 27.03.2022 14:15:39 : Starting /Applications/Unity/Hub/Editor/2020.3.20f1/Unity.app/Contents/Tools/ScriptUpdater/APIUpdater.NonObsoleteApiUpdaterDetector.exe
[api-updater (non-obsolete-error-filter)] 
----------------------------------
jit/startup time      : 107,096ms
moved types parse time: 45ms
candidates parse time : 1ms
C# parse time         : 229ms
candidates check time : 36ms
console write time    : 0ms

